Georgia Gwinnett College,33.9803011,-84.007346,FFC,64,98
Orlando Magic Kingdom,28.4185837,-81.5837811,MLB,19,62
Manhattan New York City,40.7371499,-74.0370149,OKX,32,36
Chicago Lake front,41.8828981,-87.6172176,LOT,76,73
San Francisco Fisherman's Wharf,37.8081988,-122.4244214,MTR,85,107